digraph KDE {

    margin="0.3";

/** LEGEND **/

    "QT-KDE" [shape=rect] ;
    sharky   [shape=rect, color=blue, fontcolor=blue] ;
    noel     [shape=rect, color=magenta, fontcolor=magenta] ;

/** DEPS **/

    "qt-x11-free" -> { arts } ;

    arts -> libs ;

    libs -> { "graphics,\n admin, toys,\n network,\n office" } ;

    libs -> base       -> { utils artwork addons } ;
    libs -> multimedia -> { accessibility addons } ;
    pim  -> sdk        -> { webdev kdevelop } ;
    { pim games } -> addons
    
    libs -> { edu pim games i18n } ;

/* sharky packages */
    kdevelop [color=blue, fontcolor=blue] ;
/* noel packages */
    i18n     [color=magenta, fontcolor=magenta] ;
}
